\relax 
\citation{(}
\select@language{english}
\@writefile{toc}{\select@language{english}}
\@writefile{lof}{\select@language{english}}
\@writefile{lot}{\select@language{english}}
\select@language{english}
\@writefile{toc}{\select@language{english}}
\@writefile{lof}{\select@language{english}}
\@writefile{lot}{\select@language{english}}
\@writefile{toc}{\contentsline {section}{\numberline {1}Introduction}{1}}
\citation{fikes72}
\citation{bonet10}
\citation{pralet10}
\citation{srivastave11}
\citation{hugiacomo13}
\citation{erol et al. 96}
\citation{J&J15}
\citation{segovia16}
\citation{JandJ15}
\citation{Ferrer}
\citation{Frances}
\citation{Geffner}
\@writefile{lof}{\contentsline {figure}{\numberline {1}{\ignorespaces Awesome Image\relax }}{2}}
\providecommand*\caption@xref[2]{\@setref\relax\@undefined{#1}}
\newlabel{fig:init}{{1}{2}}
\@writefile{lof}{\contentsline {figure}{\numberline {2}{\ignorespaces Generalized plan in the form of a {\it  planning program} for 2 balls in 2 bins.\relax }}{2}}
\newlabel{fig:program1}{{2}{2}}
\citation{some_important_old_planning_cite}
\citation{fikes_nilsson_1972}
\@writefile{lof}{\contentsline {figure}{\numberline {3}{\ignorespaces Example 2 balls in 2 bins tasks in a $5\times 5$ grid.\relax }}{3}}
\newlabel{fig:2b2b}{{3}{3}}
\@writefile{toc}{\contentsline {section}{\numberline {2}Background}{3}}
\@writefile{toc}{\contentsline {subsection}{\numberline {2.1}Classical Planning with Conditional Effects}{3}}
\citation{giacomo11}
\citation{segovia16}
\citation{segovia16}
\citation{bonet_palacios_geffener10}
\citation{hu_giacomo_11}
\citation{segovia16}
\citation{segovia16}
\@writefile{toc}{\contentsline {subsection}{\numberline {2.2}Motion Planning}{4}}
\@writefile{toc}{\contentsline {subsection}{\numberline {2.3}Generalized Planning}{4}}
\@writefile{toc}{\contentsline {subsection}{\numberline {2.4}Planning Programs}{4}}
\@writefile{toc}{\contentsline {section}{\numberline {3}Modeling Task and Motion Planning}{4}}
\citation{j&j15}
\citation{segovia16}
\@writefile{lof}{\contentsline {figure}{\numberline {4}{\ignorespaces Initial and target states for \textit  {MOVING-GEOM-OBSTACLE} instance in which robot has to reach a target configuration, and objects need to be grasped and moved out of the way.\relax }}{6}}
\newlabel{fig:images}{{4}{6}}
\@writefile{lof}{\contentsline {figure}{\numberline {5}{\ignorespaces \relax \fontsize  {9}{11}\selectfont  \abovedisplayskip 8.5\p@ plus3\p@ minus4\p@ \abovedisplayshortskip \z@ plus2\p@ \belowdisplayshortskip 4\p@ plus2\p@ minus2\p@ \def \leftmargin \leftmargini \topsep 3\p@ plus\p@ minus\p@ \parsep 2\p@ plus\p@ minus\p@ \itemsep \parsep {\leftmargin \leftmargini \topsep 4\p@ plus2\p@ minus2\p@ \parsep 2\p@ plus\p@ minus\p@ \itemsep \parsep }\belowdisplayskip \abovedisplayskip Model in STRIPS.\relax }}{6}}
\newlabel{fig:modeling}{{5}{6}}
\@writefile{toc}{\contentsline {section}{\numberline {4}Generalized Planning as Domain Control Knowledge}{7}}
\@writefile{toc}{\contentsline {section}{\numberline {5}Translating DCK into Tasks}{8}}
\@writefile{toc}{\contentsline {section}{\numberline {6}Serialized CTMP}{8}}
\@writefile{toc}{\contentsline {section}{\numberline {7}Experimental Results}{9}}
\@writefile{toc}{\contentsline {subsection}{\numberline {7.1}CTMP General Data}{9}}
\newlabel{res:data}{{\caption@xref {res:data}{ on input line 40}}{9}}
\@writefile{lot}{\contentsline {table}{\numberline {1}{\ignorespaces Data of the 22 considered instances. The first column corresponds to the problem type: MOVING-GEOM-OBSTACLES(MGO), CLUTTERED(CL) and TYDING-UP(TU), with the resolution parameter $r$ and the number of objects. The next columns show the number of valid configurations, the robot-object $O(R-O)$ and object-object $O(O-O)$ computed overlaps, the total number of grounded actions and the number of fluents. \relax }}{9}}
\@writefile{toc}{\contentsline {subsection}{\numberline {7.2}CTMP results}{9}}
\bibstyle{plain}
\bibdata{mybib}
