(tr-c176-S-c185)
(tr-c185-S-c194)
(rr-c194-CCW-c364)
(rr-c364-CCW-c192)
(g-c192-o5-c132)
(ro-c192-c366-CCW-o5-c132-c162)
(to-c366-c362-N-o5-c162-c153)
(ro-c362-c183-CW-o5-c153-c132)
(ro-c183-c360-CW-o5-c132-c161)
(p-o5)
(tr-c360-N-c352)
(tr-c352-N-c344)
(rr-c344-CCW-c165)
(g-c165-o1-c87)
(ro-c165-c346-CCW-o1-c87-c129)
(p-o1)
(tr-c346-N-c338)
(tr-c338-N-c328)
(dummy-action-328)
; cost = 19 (unit cost)
