(tr-c100-W-c97)
(tr-c97-W-c94)
(tr-c94-W-c91)
(tr-c91-W-c89)
(tr-c89-W-c87)
(tr-c87-SW-c129)
(tr-c129-S-c170)
(tr-c170-SW-c214)
(tr-c214-E-c216)
(g-c216-o1-c779)
(to-c216-c218-E-o1-c779-c229)
(to-c218-c220-E-o1-c229-c232)
(to-c220-c222-E-o1-c232-c233)
(to-c222-c224-E-o1-c233-c234)
(p-o1)
(tr-c224-NW-c176)
(tr-c176-N-c135)
(tr-c135-N-c91)
(rr-c91-CCW-c342)
(g-c342-o5-c46)
(to-c342-c344-E-o5-c46-c47)
(ro-c344-c92-CCW-o5-c47-c32)
(p-o5)
(tr-c92-E-c95)
(tr-c95-E-c98)
(tr-c98-E-c101)
(g-c101-o3-c27)
(to-c101-c59-N-o3-c27-c572)
(to-c59-c53-N-o3-c572-c550)
(dummy-action-53)
; cost = 30 (unit cost)
