(repeat-xdec-0-1 v2 v3 v-1 row1)
(repeat-xdec-0-1 v1 v2 v-1 row1)
(repeat-xdec-0-1 v0 v1 v-1 row1)
(repeat-xdec-0-1 v-1 v0 v-1 row1)
(repeat-xdec-0-1 v-2 v-1 v-1 row1)
(repeat-xdec-0-1 v-3 v-2 v-1 row1)
(repeat-ydec-1-1 v-2 v-1 v-3 row1)
(repeat-ydec-1-1 v-3 v-2 v-3 row1)
