(tr-c100-W-c97)
(tr-c97-W-c94)
(tr-c94-W-c91)
(tr-c91-W-c89)
(tr-c89-SW-c131)
(tr-c131-SW-c170)
(tr-c170-W-c168)
(tr-c168-SE-c216)
(tr-c216-E-c218)
(g-c218-o5-c229)
(to-c218-c216-W-o5-c229-c779)
(to-c216-c214-W-o5-c779-c778)
(to-c214-c212-W-o5-c778-c777)
(to-c212-c210-W-o5-c777-c776)
(to-c210-c208-W-o5-c776-c775)
(to-c208-c206-W-o5-c775-c774)
(p-o5)
(tr-c206-W-c204)
(tr-c204-W-c202)
(rr-c202-CCW-c362)
(tr-c362-SW-c376)
(tr-c376-SW-c390)
(tr-c390-SW-c396)
(tr-c396-SW-c400)
(rr-c400-CCW-c277)
(tr-c277-S-c290)
(tr-c290-S-c303)
(rr-c303-CCW-c414)
(rr-c414-CCW-c304)
(rr-c304-CCW-c411)
(tr-c411-N-c407)
(tr-c407-NE-c403)
(tr-c403-NE-c397)
(tr-c397-N-c389)
(tr-c389-NE-c375)
(tr-c375-NE-c361)
(rr-c361-CW-c201)
(tr-c201-NE-c157)
(tr-c157-NE-c118)
(tr-c118-NE-c76)
(tr-c76-E-c78)
(tr-c78-E-c80)
(tr-c80-E-c82)
(tr-c82-E-c84)
(tr-c84-E-c86)
(tr-c86-E-c88)
(tr-c88-E-c90)
(tr-c90-E-c93)
(tr-c93-E-c96)
(tr-c96-E-c99)
(tr-c99-E-c102)
(rr-c102-CW-c346)
(rr-c346-CW-c101)
(g-c101-o3-c27)
(to-c101-c59-N-o3-c27-c572)
(to-c59-c53-N-o3-c572-c550)
(dummy-action-53)
; cost = 57 (unit cost)
