\relax 
\providecommand\hyper@newdestlabel[2]{}
\providecommand\HyperFirstAtBeginDocument{\AtBeginDocument}
\HyperFirstAtBeginDocument{\ifx\hyper@anchor\@undefined
\global\let\oldcontentsline\contentsline
\gdef\contentsline#1#2#3#4{\oldcontentsline{#1}{#2}{#3}}
\global\let\oldnewlabel\newlabel
\gdef\newlabel#1#2{\newlabelxx{#1}#2}
\gdef\newlabelxx#1#2#3#4#5#6{\oldnewlabel{#1}{{#2}{#3}}}
\AtEndDocument{\ifx\hyper@anchor\@undefined
\let\contentsline\oldcontentsline
\let\newlabel\oldnewlabel
\fi}
\fi}
\global\let\hyper@last\relax 
\gdef\HyperFirstAtBeginDocument#1{#1}
\providecommand\HyField@AuxAddToFields[1]{}
\providecommand\HyField@AuxAddToCoFields[2]{}
\citation{cambon2004asymov}
\citation{wolfe2010combined}
\citation{lagriffoul2012constraint}
\citation{lozano2014constraint}
\citation{garrett2014ffrob}
\citation{Fikes72}
\citation{Geffner:FSM:AAAI10}
\citation{Infantes:FSC:ECAI2010}
\citation{Zilberstein:Gplanning:icaps11}
\citation{Giacomo:FSM:ICAPS13}
\citation{Erol96}
\citation{baier:procedural}
\citation{Jimenez15}
\citation{segovia16a}
\citation{Jimenez15}
\citation{ferrerplanning}
\@writefile{toc}{\contentsline {section}{Introduction}{1}{section*.1}}
\@writefile{lof}{\contentsline {figure}{\numberline {1}{\ignorespaces Gripper must grasp green object.\relax }}{1}{figure.caption.2}}
\providecommand*\caption@xref[2]{\@setref\relax\@undefined{#1}}
\newlabel{fig:init}{{1}{1}{Gripper must grasp green object.\relax }{figure.caption.2}{}}
\citation{Fikes72}
\@writefile{lof}{\contentsline {figure}{\numberline {2}{\ignorespaces Generalized plan in the form of a {\it  planning program} for 2 balls in 2 bins.\relax }}{2}{figure.caption.3}}
\newlabel{fig:program1}{{2}{2}{Generalized plan in the form of a {\it planning program} for 2 balls in 2 bins.\relax }{figure.caption.3}{}}
\@writefile{lof}{\contentsline {figure}{\numberline {3}{\ignorespaces Example 2 balls in 2 bins tasks in a $5\times 5$ grid.\relax }}{2}{figure.caption.4}}
\newlabel{fig:2b2b}{{3}{2}{Example 2 balls in 2 bins tasks in a $5\times 5$ grid.\relax }{figure.caption.4}{}}
\@writefile{toc}{\contentsline {section}{Background}{2}{section*.5}}
\@writefile{toc}{\contentsline {subsection}{Classical Planning with Conditional Effects}{2}{section*.6}}
\citation{lavalle:motion-planning}
\citation{Giacomo:GPlanning:IJCAI11}
\citation{segovia16a}
\citation{segovia16a}
\citation{bonet:icaps09}
\citation{Giacomo:GPlanning:IJCAI11}
\citation{segovia16a}
\citation{segovia16a}
\@writefile{toc}{\contentsline {subsection}{Motion Planning}{3}{section*.7}}
\@writefile{toc}{\contentsline {subsection}{Generalized Planning}{3}{section*.8}}
\@writefile{toc}{\contentsline {subsection}{Planning Programs}{3}{section*.9}}
\@writefile{toc}{\contentsline {subsection}{Computing Planning Programs with Classical Planning}{3}{section*.10}}
\@writefile{toc}{\contentsline {section}{Modeling Task and Motion Planning}{4}{section*.11}}
\newlabel{fig:modeling}{{\caption@xref {fig:modeling}{ on input line 187}}{4}{Modeling Task and Motion Planning}{figure.caption.12}{}}
\@writefile{lof}{\contentsline {figure}{\numberline {4}{\ignorespaces Initial and target states for \textit  {MOVING-GEOM-OBSTACLE} instance in which robot has to reach a target configuration, and objects need to be grasped and moved out of the way.\relax }}{5}{figure.caption.13}}
\newlabel{fig:images}{{4}{5}{Initial and target states for \textit {MOVING-GEOM-OBSTACLE} instance in which robot has to reach a target configuration, and objects need to be grasped and moved out of the way.\relax }{figure.caption.13}{}}
\@writefile{lof}{\contentsline {figure}{\numberline {5}{\ignorespaces \relax \fontsize  {9}{10}\selectfont  Model in STRIPS. Our encoding ground arguments.\relax }}{5}{figure.caption.14}}
\newlabel{fig:modeling2}{{5}{5}{\small Model in STRIPS. Our encoding ground arguments.\relax }{figure.caption.14}{}}
\citation{Jimenez15}
\citation{segovia16a}
\@writefile{toc}{\contentsline {section}{Generalized Planning for CTMP}{6}{section*.15}}
\@writefile{toc}{\contentsline {subsection}{Generalized Planning as Domain Control Knowledge}{6}{section*.16}}
\@writefile{toc}{\contentsline {subparagraph}{Translating DCK into Tasks}{6}{section*.17}}
\citation{helmert:fd}
\@writefile{toc}{\contentsline {subsection}{Serialized CTMP}{7}{section*.18}}
\@writefile{toc}{\contentsline {section}{Experimental Results}{7}{section*.19}}
\@writefile{lot}{\contentsline {table}{\numberline {1}{\ignorespaces Data of the 22 considered instances. The first column corresponds to the problem type: MOVING-GEOM-OBSTACLES(MGO), CLUTTERED(CL) and TIDY-UP(TU), with the resolution parameter $r$ and the number of objects. The next columns show the number of valid configurations, the robot-object $O(R-O)$ and object-object $O(O-O)$ computed overlaps, the total number of grounded actions and the number of fluents. \relax }}{7}{table.caption.20}}
\newlabel{table:res_data}{{1}{7}{Data of the 22 considered instances. The first column corresponds to the problem type: MOVING-GEOM-OBSTACLES(MGO), CLUTTERED(CL) and TIDY-UP(TU), with the resolution parameter $r$ and the number of objects. The next columns show the number of valid configurations, the robot-object $O(R-O)$ and object-object $O(O-O)$ computed overlaps, the total number of grounded actions and the number of fluents. \relax }{table.caption.20}{}}
\newlabel{my-label}{{\caption@xref {my-label}{ on input line 363}}{8}{Experimental Results}{table.caption.21}{}}
\@writefile{lot}{\contentsline {table}{\numberline {2}{\ignorespaces Performance of STRIPS planner on the 22 instances from Table 1. The STRIPS planner is FD. We show results with both: Without using Generalized Planning and solving the whole problem at once, and with Generalized planning. For each instance, the columns show the plan length, the number of expanded nodes and the runtime in seconds for non GP approach, and the total plan length, the total runtime in seconds and the number of planner calls for GP approach. Simulations of the execution of the computed plans can be visualized at \url  {https://www.dropbox.com/sh/x7zbl7oqr552knq/AABbf638A46eI9lrWzjdUjFna?dl=0}\relax }}{8}{table.caption.21}}
\newlabel{res:results}{{2}{8}{Performance of STRIPS planner on the 22 instances from Table 1. The STRIPS planner is FD. We show results with both: Without using Generalized Planning and solving the whole problem at once, and with Generalized planning. For each instance, the columns show the plan length, the number of expanded nodes and the runtime in seconds for non GP approach, and the total plan length, the total runtime in seconds and the number of planner calls for GP approach. Simulations of the execution of the computed plans can be visualized at \url {https://www.dropbox.com/sh/x7zbl7oqr552knq/AABbf638A46eI9lrWzjdUjFna?dl=0}\relax }{table.caption.21}{}}
\citation{nebel2013much}
\citation{garrett2014ffrob}
\citation{srivastava:2014}
\citation{kaelbling2011hierarchical}
\citation{wolfe2010combined}
\citation{cambon2004asymov}
\citation{gravot2005asymov}
\citation{lagriffoul2012constraint}
\citation{Jimenez15}
\citation{segovia16a}
\citation{baier:Procedures2PDDL:ICAPS2007}
\citation{baier:Procedures2PDDL:KR08}
\citation{Geffner:FSM:AAAI10}
\citation{palacios-conformant-JAIR09}
\citation{segovia16b}
\@writefile{toc}{\contentsline {subsection}{Validations and Use of Plans}{9}{section*.24}}
\@writefile{toc}{\contentsline {section}{Related Work}{9}{section*.25}}
\citation{segovia16b}
\citation{geffner:fstrips}
\citation{Guillem-fstrips-ICAPS15}
\bibstyle{aaai}
\bibdata{aaai}
\bibcite{baier:procedural}{\citeauthoryear {Baier and McIlraith}{2007}}
\@writefile{lof}{\contentsline {figure}{\numberline {6}{\ignorespaces Flow diagrams of a planning program obtained for Cluttered domain (main and 2 procedures)\relax }}{10}{figure.caption.22}}
\newlabel{fig:controllers}{{6}{10}{Flow diagrams of a planning program obtained for Cluttered domain (main and 2 procedures)\relax }{figure.caption.22}{}}
\@writefile{lot}{\contentsline {table}{\numberline {3}{\ignorespaces Generalized planning data form all domains.\relax }}{10}{table.caption.23}}
\newlabel{controller}{{3}{10}{Generalized planning data form all domains.\relax }{table.caption.23}{}}
\@writefile{toc}{\contentsline {section}{Conclusions}{10}{section*.26}}
\bibcite{baier:Procedures2PDDL:ICAPS2007}{\citeauthoryear {Baier, Fritz, and McIlraith}{2007}}
\bibcite{bonet:icaps09}{\citeauthoryear {Bonet, Palacios, and Geffner}{2009}}
\bibcite{Geffner:FSM:AAAI10}{\citeauthoryear {Bonet, Palacios, and Geffner}{2010}}
\bibcite{cambon2004asymov}{\citeauthoryear {Cambon, Gravot, and Alami}{2004}}
\bibcite{Erol96}{\citeauthoryear {Erol, Hendler, and Nau}{1996}}
\bibcite{ferrerplanning}{\citeauthoryear {Ferrer-Mestres, Frances, and Geffner}{}}
\bibcite{Fikes72}{\citeauthoryear {Fikes, Hart, and Nilsson}{1972}}
\bibcite{Guillem-fstrips-ICAPS15}{\citeauthoryear {Franc{\'e}s and Geffner}{2015}}
\bibcite{baier:Procedures2PDDL:KR08}{\citeauthoryear {Fritz, Baier, and McIlraith}{2008}}
\bibcite{garrett2014ffrob}{\citeauthoryear {Garrett, Lozano-P{\'e}rez, and Kaelbling}{2014}}
\bibcite{geffner:fstrips}{\citeauthoryear {Geffner}{2000}}
\bibcite{gravot2005asymov}{\citeauthoryear {Gravot, Cambon, and Alami}{2005}}
\bibcite{helmert:fd}{\citeauthoryear {Helmert}{2006}}
\bibcite{Giacomo:GPlanning:IJCAI11}{\citeauthoryear {Hu and {De Giacomo}}{2011}}
\bibcite{Giacomo:FSM:ICAPS13}{\citeauthoryear {Hu and {De Giacomo}}{2013}}
\bibcite{Jimenez15}{\citeauthoryear {Jim{\'{e}}nez and Jonsson}{2015}}
\bibcite{kaelbling2011hierarchical}{\citeauthoryear {Kaelbling and Lozano-P{\'e}rez}{2011}}
\bibcite{lagriffoul2012constraint}{\citeauthoryear {Lagriffoul \bgroup et al\unhbox \voidb@x \hbox {.}\egroup }{2012}}
\bibcite{lavalle:motion-planning}{\citeauthoryear {LaValle}{2006}}
\bibcite{lozano2014constraint}{\citeauthoryear {Lozano-P{\'e}rez and Kaelbling}{2014}}
\bibcite{nebel2013much}{\citeauthoryear {Nebel, Dornhege, and Hertle}{2013}}
\bibcite{palacios-conformant-JAIR09}{\citeauthoryear {Palacios and Geffner}{2009}}
\bibcite{Infantes:FSC:ECAI2010}{\citeauthoryear {Pralet \bgroup et al\unhbox \voidb@x \hbox {.}\egroup }{2010}}
\bibcite{segovia16a}{\citeauthoryear {Segovia\nobreakspace  {}Aguas, Jim{\'e}nez, and Anders}{2016a}}
\bibcite{segovia16b}{\citeauthoryear {Segovia\nobreakspace  {}Aguas, Jim{\'e}nez, and Anders}{2016b}}
\bibcite{Zilberstein:Gplanning:icaps11}{\citeauthoryear {Srivastava \bgroup et al\unhbox \voidb@x \hbox {.}\egroup }{2011}}
\bibcite{srivastava:2014}{\citeauthoryear {Srivastava \bgroup et al\unhbox \voidb@x \hbox {.}\egroup }{2014}}
\bibcite{wolfe2010combined}{\citeauthoryear {Wolfe, Marthi, and Russell}{2010}}
