dummy_goal_pos0 (-4,-4)
dummy_goal_pos1 (-4,-3)
dummy_goal_pos2 (-4,-2)
dummy_goal_pos3 (-4,-1)
dummy_goal_pos4 (-3,-4)
dummy_goal_pos5 (-3,-3)
dummy_goal_pos6 (-3,-2)
dummy_goal_pos7 (-3,-1)
dummy_goal_pos8 (-2,-4)
dummy_goal_pos9 (-2,-3)
dummy_goal_pos10 (-2,-2)
dummy_goal_pos11 (-1,-4)
dummy_goal_pos12 (-1,-3)
dummy_goal_pos13 (-1,-2)
dummy_goal_pos14 (-1,-1)
dummy_goal_pos15 (0,-4)
dummy_goal_pos16 (0,-3)
dummy_goal_pos17 (0,-2)
dummy_goal_pos18 (0,-1)
dummy_goal_pos19 (1,-4)
dummy_goal_pos20 (1,-3)
dummy_goal_pos21 (1,-2)
dummy_goal_pos22 (2,-4)
dummy_goal_pos23 (2,-3)
dummy_goal_pos24 (2,-2)
dummy_goal_pos25 (3,-4)
dummy_goal_pos26 (3,-3)
dummy_goal_pos27 (3,-2)
dummy_goal_pos28 (4,-4)
dummy_goal_pos29 (4,-3)
dummy_goal_pos30 (4,-2)
