INS-XDEC-0-0
JMP-0-1-0 COND-XPOS-0-1 V0
INS-YDEC-0-2
INS-VISIT-0-3
JMP-0-4-2 COND-VISITED-0-4 V0 V0
INS-END-0-5

INS-XINC-1-0
JMP-1-1-0 COND-EQUALX-XMAX-1-1
INS-YDEC-1-2
INS-VISIT-1-3
JMP-1-4-2 COND-YPOS-1-4 V0
INS-END-1-5

INS-XINC-2-0
JMP-2-1-0 COND-EQUALX-XMAX-2-1
INS-YINC-2-2
JMP-2-3-2 COND-EQUALY-YMAX-2-3
INS-VISIT-2-4
INS-END-2-5

INS-YINC-3-0
JMP-3-1-0 COND-EQUALY-YMAX-3-1
INS-XDEC-3-2
INS-VISIT-3-3
JMP-3-4-2 COND-XPOS-3-4 V0
INS-END-3-5

CALL-0-0
CALL-1-1
CALL-2-2
CALL-3-3
INS-END-4
