(to-c103-c107-E-o3-c7-c10)
(to-c107-c109-E-o3-c10-c13)
(to-c109-c113-E-o3-c13-c183)
(to-c113-c117-E-o3-c183-c184)
(p-o3)
(rr-c117-CW-c37)
(tr-c37-NW-c15)
(g-c15-o3-c184)
(ro-c15-c98-CW-o3-c184-c35)
(to-c98-c100-E-o3-c35-c38)
(p-o3)
(rr-c100-CCW-c17)
(g-c17-o1-c185)
(to-c17-c19-E-o1-c185-c186)
(p-o1)
(tr-c19-W-c17)
(rr-c17-CW-c100)
(g-c100-o3-c38)
(ro-c100-c17-CCW-o3-c38-c185)
(dummy-goal-o1-action-4)
(dummy-goal-o3-action-1)
; cost = 21 (unit cost)
