(to-c222-c220-W-o2-c233-c232)
(to-c220-c218-W-o2-c232-c229)
(to-c218-c216-W-o2-c229-c779)
(to-c216-c214-W-o2-c779-c778)
(to-c214-c212-W-o2-c778-c777)
(to-c212-c210-W-o2-c777-c776)
(to-c210-c208-W-o2-c776-c775)
(to-c208-c206-W-o2-c775-c774)
(to-c206-c204-W-o2-c774-c773)
(to-c204-c202-W-o2-c773-c772)
(to-c202-c200-W-o2-c772-c771)
(to-c200-c197-W-o2-c771-c770)
(to-c197-c194-W-o2-c770-c769)
(to-c194-c191-W-o2-c769-c768)
(p-o2)
(tr-c191-S-c240)
(tr-c240-S-c253)
(tr-c253-S-c266)
(rr-c266-CCW-c392)
(tr-c392-SE-c404)
(tr-c404-E-c406)
(g-c406-o2-c768)
(to-c406-c398-N-o2-c768-c767)
(to-c398-c396-W-o2-c767-c766)
(to-c396-c392-W-o2-c766-c198)
(to-c392-c400-S-o2-c198-c243)
(to-c400-c408-S-o2-c243-c256)
(ro-c408-c290-CCW-o2-c256-c189)
(p-o2)
(rr-c290-CW-c408)
(rr-c408-CW-c292)
(tr-c292-S-c305)
(rr-c305-CCW-c412)
(rr-c412-CCW-c303)
(g-c303-o2-c189)
(ro-c303-c414-CCW-o2-c189-c261)
(p-o2)
(tr-c414-N-c410)
(tr-c410-N-c402)
(tr-c402-N-c394)
(rr-c394-CW-c264)
(g-c264-o0-c669)
(ro-c264-c394-CCW-o0-c669-c186)
(p-o0)
(rr-c394-CW-c264)
(tr-c264-N-c251)
(tr-c251-N-c238)
(tr-c238-NE-c192)
(rr-c192-CW-c356)
(g-c356-o4-c672)
(to-c356-c358-E-o4-c672-c673)
(to-c358-c360-E-o4-c673-c674)
(p-o4)
(rr-c360-CW-c200)
(tr-c200-E-c202)
(tr-c202-E-c204)
(tr-c204-E-c206)
(tr-c206-E-c208)
(tr-c208-E-c210)
(tr-c210-E-c212)
(tr-c212-E-c214)
(tr-c214-E-c216)
(tr-c216-E-c218)
(tr-c218-E-c220)
(tr-c220-E-c222)
(tr-c222-E-c224)
(tr-c224-E-c226)
(tr-c226-E-c228)
(dummy-action-228)
; cost = 69 (unit cost)
