(tr-c203-W-c201)
(tr-c201-W-c199)
(tr-c199-W-c196)
(tr-c196-W-c193)
(tr-c193-SW-c239)
(tr-c239-S-c252)
(tr-c252-S-c265)
(rr-c265-CW-c394)
(rr-c394-CW-c264)
(rr-c264-CW-c392)
(rr-c392-CW-c266)
(tr-c266-N-c253)
(tr-c253-N-c240)
(tr-c240-NE-c194)
(tr-c194-E-c197)
(tr-c197-E-c200)
(tr-c200-E-c202)
(tr-c202-E-c204)
(tr-c204-E-c206)
(g-c206-o2-c774)
(to-c206-c208-E-o2-c774-c775)
(to-c208-c210-E-o2-c775-c776)
(dummy-action-210)
; cost = 23 (unit cost)
