0.(-3,-4,0)
1.(-3,-2,0)
2.(-3,2,0)
3.(-3,2,1.5708)
4.(-3,2,-1.5708)
5.(-3,2.33333,1.5708)
6.(-3,2.33333,-1.5708)
7.(-3,2.66667,1.5708)
8.(-3,2.66667,-1.5708)
9.(-3,3,1.5708)
10.(-3,3,-1.5708)
11.(-3,4,0)
12.(-2.66667,-4,0)
13.(-2.66667,-2,0)
14.(-2.66667,2,0)
15.(-2.66667,3,1.5708)
16.(-2.66667,3,-1.5708)
17.(-2.33333,-4,0)
18.(-2.33333,-2,0)
19.(-2.33333,2,0)
20.(-2.33333,3,1.5708)
21.(-2.33333,3,-1.5708)
22.(-2,-4,0)
23.(-2,-2,0)
24.(-2,2,0)
25.(-2,2.33333,0)
26.(-2,2.66667,0)
27.(-2,3,0)
28.(-2,3,1.5708)
29.(-2,3,-1.5708)
30.(-1.66667,-4,0)
31.(-1.66667,-2,0)
32.(-1.66667,2,0)
33.(-1.66667,2.33333,0)
34.(-1.66667,2.66667,0)
35.(-1.66667,3,0)
36.(-1.33333,-4,0)
37.(-1.33333,-2,0)
38.(-1.33333,2,0)
39.(-1.33333,2.33333,0)
40.(-1.33333,2.66667,0)
41.(-1.33333,3,0)
42.(-1,-4,0)
43.(-1,-2,0)
44.(-1,2,0)
45.(-1,2.33333,0)
46.(-1,2.66667,0)
47.(-1,3,0)
48.(-0.666667,-4,0)
49.(-0.666667,-2,0)
50.(-0.666667,2,0)
51.(-0.666667,2.33333,0)
52.(-0.666667,2.66667,0)
53.(-0.666667,3,0)
54.(-0.333333,-4,0)
55.(-0.333333,-2,0)
56.(-0.333333,2,0)
57.(-0.333333,2.33333,0)
58.(-0.333333,2.66667,0)
59.(-0.333333,3,0)
60.(0,-4,0)
61.(0,-3,1.5708)
62.(0,-3,-1.5708)
63.(0,-2.66667,1.5708)
64.(0,-2.66667,-1.5708)
65.(0,-2.33333,1.5708)
66.(0,-2.33333,-1.5708)
67.(0,-2,0)
68.(0,-2,1.5708)
69.(0,-2,-1.5708)
70.(0,-1.66667,1.5708)
71.(0,-1.66667,-1.5708)
72.(0,-1.33333,1.5708)
73.(0,-1.33333,-1.5708)
74.(0,-1,1.5708)
75.(0,-1,-1.5708)
76.(0,-0.666667,1.5708)
77.(0,-0.666667,-1.5708)
78.(0,-0.333333,1.5708)
79.(0,-0.333333,-1.5708)
80.(0,0,1.5708)
81.(0,0,-1.5708)
82.(0,0.333333,1.5708)
83.(0,0.333333,-1.5708)
84.(0,0.666667,1.5708)
85.(0,0.666667,-1.5708)
86.(0,1,1.5708)
87.(0,1,-1.5708)
88.(0,1.33333,1.5708)
89.(0,1.33333,-1.5708)
90.(0,1.66667,1.5708)
91.(0,1.66667,-1.5708)
92.(0,2,0)
93.(0,2,1.5708)
94.(0,2,-1.5708)
95.(0,2.33333,0)
96.(0,2.33333,1.5708)
97.(0,2.33333,-1.5708)
98.(0,2.66667,0)
99.(0,2.66667,1.5708)
100.(0,2.66667,-1.5708)
101.(0,3,0)
102.(0,3,1.5708)
103.(0,3,-1.5708)
104.(0.333333,-4,0)
105.(0.333333,-3,1.5708)
106.(0.333333,-3,-1.5708)
107.(0.333333,-2.66667,1.5708)
108.(0.333333,-2.66667,-1.5708)
109.(0.333333,-2.33333,1.5708)
110.(0.333333,-2.33333,-1.5708)
111.(0.333333,-2,0)
112.(0.333333,-2,1.5708)
113.(0.333333,-2,-1.5708)
114.(0.333333,-1.66667,1.5708)
115.(0.333333,-1.66667,-1.5708)
116.(0.333333,-1.33333,1.5708)
117.(0.333333,-1.33333,-1.5708)
118.(0.333333,-1,1.5708)
119.(0.333333,-1,-1.5708)
120.(0.333333,-0.666667,1.5708)
121.(0.333333,-0.666667,-1.5708)
122.(0.333333,-0.333333,1.5708)
123.(0.333333,-0.333333,-1.5708)
124.(0.333333,0,1.5708)
125.(0.333333,0,-1.5708)
126.(0.333333,0.333333,1.5708)
127.(0.333333,0.333333,-1.5708)
128.(0.333333,0.666667,1.5708)
129.(0.333333,0.666667,-1.5708)
130.(0.333333,1,1.5708)
131.(0.333333,1,-1.5708)
132.(0.333333,1.33333,1.5708)
133.(0.333333,1.33333,-1.5708)
134.(0.333333,1.66667,1.5708)
135.(0.333333,1.66667,-1.5708)
136.(0.333333,2,1.5708)
137.(0.333333,2,-1.5708)
138.(0.333333,2.33333,1.5708)
139.(0.333333,2.33333,-1.5708)
140.(0.333333,2.66667,1.5708)
141.(0.333333,2.66667,-1.5708)
142.(0.333333,3,0)
143.(0.333333,3,1.5708)
144.(0.333333,3,-1.5708)
145.(0.666667,-4,0)
146.(0.666667,-3,1.5708)
147.(0.666667,-3,-1.5708)
148.(0.666667,-2.66667,1.5708)
149.(0.666667,-2.66667,-1.5708)
150.(0.666667,-2.33333,1.5708)
151.(0.666667,-2.33333,-1.5708)
152.(0.666667,-2,0)
153.(0.666667,-2,1.5708)
154.(0.666667,-2,-1.5708)
155.(0.666667,-1.66667,1.5708)
156.(0.666667,-1.66667,-1.5708)
157.(0.666667,-1.33333,1.5708)
158.(0.666667,-1.33333,-1.5708)
159.(0.666667,-1,1.5708)
160.(0.666667,-1,-1.5708)
161.(0.666667,-0.666667,1.5708)
162.(0.666667,-0.666667,-1.5708)
163.(0.666667,-0.333333,1.5708)
164.(0.666667,-0.333333,-1.5708)
165.(0.666667,0,1.5708)
166.(0.666667,0,-1.5708)
167.(0.666667,0.333333,1.5708)
168.(0.666667,0.333333,-1.5708)
169.(0.666667,0.666667,1.5708)
170.(0.666667,0.666667,-1.5708)
171.(0.666667,1,1.5708)
172.(0.666667,1,-1.5708)
173.(0.666667,1.33333,1.5708)
174.(0.666667,1.33333,-1.5708)
175.(0.666667,1.66667,1.5708)
176.(0.666667,1.66667,-1.5708)
177.(0.666667,2,1.5708)
178.(0.666667,2,-1.5708)
179.(0.666667,2.33333,1.5708)
180.(0.666667,2.33333,-1.5708)
181.(0.666667,2.66667,1.5708)
182.(0.666667,2.66667,-1.5708)
183.(0.666667,3,0)
184.(0.666667,3,1.5708)
185.(0.666667,3,-1.5708)
186.(1,-4,0)
187.(1,-3.66667,0)
188.(1,-3.33333,0)
189.(1,-3,0)
190.(1,-3,1.5708)
191.(1,-3,-1.5708)
192.(1,-2.66667,0)
193.(1,-2.66667,1.5708)
194.(1,-2.66667,-1.5708)
195.(1,-2.33333,0)
196.(1,-2.33333,1.5708)
197.(1,-2.33333,-1.5708)
198.(1,-2,0)
199.(1,-2,1.5708)
200.(1,-2,-1.5708)
201.(1,-1.66667,1.5708)
202.(1,-1.66667,-1.5708)
203.(1,-1.33333,1.5708)
204.(1,-1.33333,-1.5708)
205.(1,-1,1.5708)
206.(1,-1,-1.5708)
207.(1,-0.666667,1.5708)
208.(1,-0.666667,-1.5708)
209.(1,-0.333333,1.5708)
210.(1,-0.333333,-1.5708)
211.(1,0,1.5708)
212.(1,0,-1.5708)
213.(1,0.333333,1.5708)
214.(1,0.333333,-1.5708)
215.(1,0.666667,1.5708)
216.(1,0.666667,-1.5708)
217.(1,1,1.5708)
218.(1,1,-1.5708)
219.(1,1.33333,1.5708)
220.(1,1.33333,-1.5708)
221.(1,1.66667,1.5708)
222.(1,1.66667,-1.5708)
223.(1,2,1.5708)
224.(1,2,-1.5708)
225.(1,2.33333,1.5708)
226.(1,2.33333,-1.5708)
227.(1,2.66667,1.5708)
228.(1,2.66667,-1.5708)
229.(1,3,0)
230.(1,3,1.5708)
231.(1,3,-1.5708)
232.(1,3.33333,0)
233.(1,3.66667,0)
234.(1,4,0)
235.(1.33333,-4,0)
236.(1.33333,-3.66667,0)
237.(1.33333,-3.33333,0)
238.(1.33333,-3,0)
239.(1.33333,-3,1.5708)
240.(1.33333,-3,-1.5708)
241.(1.33333,-2.66667,0)
242.(1.33333,-2.33333,0)
243.(1.33333,-2,0)
244.(1.33333,3,0)
245.(1.33333,3.33333,0)
246.(1.33333,3.66667,0)
247.(1.33333,4,0)
248.(1.66667,-4,0)
249.(1.66667,-3.66667,0)
250.(1.66667,-3.33333,0)
251.(1.66667,-3,0)
252.(1.66667,-3,1.5708)
253.(1.66667,-3,-1.5708)
254.(1.66667,-2.66667,0)
255.(1.66667,-2.33333,0)
256.(1.66667,-2,0)
257.(1.66667,3,0)
258.(1.66667,3.33333,0)
259.(1.66667,3.66667,0)
260.(1.66667,4,0)
261.(2,-4,0)
262.(2,-3.66667,0)
263.(2,-3.33333,0)
264.(2,-3,0)
265.(2,-3,1.5708)
266.(2,-3,-1.5708)
267.(2,-2.66667,0)
268.(2,-2.33333,0)
269.(2,-2,0)
270.(2,3,0)
271.(2,3.33333,0)
272.(2,3.66667,0)
273.(2,4,0)
274.(2.33333,-4,0)
275.(2.33333,-3.66667,0)
276.(2.33333,-3.33333,0)
277.(2.33333,-3,0)
278.(2.33333,-3,1.5708)
279.(2.33333,-3,-1.5708)
280.(2.33333,-2.66667,0)
281.(2.33333,-2.33333,0)
282.(2.33333,-2,0)
283.(2.33333,3,0)
284.(2.33333,3.33333,0)
285.(2.33333,3.66667,0)
286.(2.33333,4,0)
287.(2.66667,-4,0)
288.(2.66667,-3.66667,0)
289.(2.66667,-3.33333,0)
290.(2.66667,-3,0)
291.(2.66667,-3,1.5708)
292.(2.66667,-3,-1.5708)
293.(2.66667,-2.66667,0)
294.(2.66667,-2.33333,0)
295.(2.66667,-2,0)
296.(2.66667,3,0)
297.(2.66667,3.33333,0)
298.(2.66667,3.66667,0)
299.(2.66667,4,0)
300.(3,-4,0)
301.(3,-3.66667,0)
302.(3,-3.33333,0)
303.(3,-3,0)
304.(3,-3,1.5708)
305.(3,-3,-1.5708)
306.(3,-2.66667,0)
307.(3,-2.33333,0)
308.(3,-2,0)
309.(3,3,0)
310.(3,3.33333,0)
311.(3,3.66667,0)
312.(3,4,0)
313.(3.33333,-3,1.5708)
314.(3.33333,-3,-1.5708)
315.(3.66667,-3,1.5708)
316.(3.66667,-3,-1.5708)
317.(4,-3,1.5708)
318.(4,-3,-1.5708)
319.(4,3,1.5708)
320.(4,3,-1.5708)
321.(-3,2,-2.3562)
322.(-3,2,0.7854)
323.(-3,2.33333,-2.3562)
324.(-3,2.33333,0.7854)
325.(-2.66667,2,-2.3562)
326.(-2.66667,2,0.7854)
327.(-2,3,2.3562)
328.(-2,3,-0.7854)
329.(-1.66667,3,2.3562)
330.(-1.66667,3,-0.7854)
331.(-0.666667,2.33333,2.3562)
332.(-0.666667,2.33333,-0.7854)
333.(-0.666667,2.66667,2.3562)
334.(-0.666667,2.66667,-0.7854)
335.(-0.333333,1.66667,2.3562)
336.(-0.333333,1.66667,-0.7854)
337.(-0.333333,2,2.3562)
338.(-0.333333,2,-0.7854)
339.(-0.333333,3,-2.3562)
340.(-0.333333,3,0.7854)
341.(0,1.66667,2.3562)
342.(0,1.66667,-0.7854)
343.(0,2,2.3562)
344.(0,2,-0.7854)
345.(0,3,-2.3562)
346.(0,3,0.7854)
347.(0.333333,3,-2.3562)
348.(0.333333,3,0.7854)
349.(0.666667,3,-2.3562)
350.(0.666667,3,0.7854)
351.(1,-3,2.3562)
352.(1,-3,-0.7854)
353.(1,-3,-2.3562)
354.(1,-3,0.7854)
355.(1,-2.66667,2.3562)
356.(1,-2.66667,-0.7854)
357.(1,-2.33333,2.3562)
358.(1,-2.33333,-0.7854)
359.(1,-2,2.3562)
360.(1,-2,-0.7854)
361.(1,-1.66667,2.3562)
362.(1,-1.66667,-0.7854)
363.(1,2.66667,-2.3562)
364.(1,2.66667,0.7854)
365.(1,3,-2.3562)
366.(1,3,0.7854)
367.(1.33333,-3,2.3562)
368.(1.33333,-3,-0.7854)
369.(1.33333,-3,-2.3562)
370.(1.33333,-3,0.7854)
371.(1.33333,-2.66667,2.3562)
372.(1.33333,-2.66667,-0.7854)
373.(1.33333,-2.33333,2.3562)
374.(1.33333,-2.33333,-0.7854)
375.(1.33333,-2,2.3562)
376.(1.33333,-2,-0.7854)
377.(1.33333,-1.66667,2.3562)
378.(1.33333,-1.66667,-0.7854)
379.(1.33333,2.66667,-2.3562)
380.(1.33333,2.66667,0.7854)
381.(1.33333,3,-2.3562)
382.(1.33333,3,0.7854)
383.(1.66667,-3,2.3562)
384.(1.66667,-3,-0.7854)
385.(1.66667,-3,-2.3562)
386.(1.66667,-3,0.7854)
387.(1.66667,-2.66667,2.3562)
388.(1.66667,-2.66667,-0.7854)
389.(1.66667,-2.33333,2.3562)
390.(1.66667,-2.33333,-0.7854)
391.(2,-3,2.3562)
392.(2,-3,-0.7854)
393.(2,-3,-2.3562)
394.(2,-3,0.7854)
395.(2,-2.66667,2.3562)
396.(2,-2.66667,-0.7854)
397.(2,-2.33333,2.3562)
398.(2,-2.33333,-0.7854)
399.(2.33333,-3,2.3562)
400.(2.33333,-3,-0.7854)
401.(2.33333,-3,-2.3562)
402.(2.33333,-3,0.7854)
403.(2.33333,-2.66667,2.3562)
404.(2.33333,-2.66667,-0.7854)
405.(2.33333,-2.33333,2.3562)
406.(2.33333,-2.33333,-0.7854)
407.(2.66667,-3,2.3562)
408.(2.66667,-3,-0.7854)
409.(2.66667,-3,-2.3562)
410.(2.66667,-3,0.7854)
411.(3,-3,2.3562)
412.(3,-3,-0.7854)
413.(3,-3,-2.3562)
414.(3,-3,0.7854)
415.(-4,-4,0)
416.(-4,-4,1.5708)
417.(-4,-4,-1.5708)
418.(-4,-2,0)
419.(-4,-2,1.5708)
420.(-4,-2,-1.5708)
421.(-4,-1.66667,0)
422.(-4,-1.66667,1.5708)
423.(-4,-1.66667,-1.5708)
424.(-4,-1.33333,0)
425.(-4,-1.33333,1.5708)
426.(-4,-1.33333,-1.5708)
427.(-4,-1,0)
428.(-4,-1,1.5708)
429.(-4,-1,-1.5708)
430.(-4,1,0)
431.(-4,1,1.5708)
432.(-4,1,-1.5708)
433.(-4,1.33333,0)
434.(-4,1.33333,1.5708)
435.(-4,1.33333,-1.5708)
436.(-4,1.66667,0)
437.(-4,1.66667,1.5708)
438.(-4,1.66667,-1.5708)
439.(-4,2,0)
440.(-4,2,1.5708)
441.(-4,2,-1.5708)
442.(-4,4,0)
443.(-4,4,1.5708)
444.(-4,4,-1.5708)
445.(-3.66667,-4,0)
446.(-3.66667,-4,1.5708)
447.(-3.66667,-4,-1.5708)
448.(-3.66667,-2,0)
449.(-3.66667,-2,1.5708)
450.(-3.66667,-2,-1.5708)
451.(-3.66667,-1.66667,0)
452.(-3.66667,-1.66667,1.5708)
453.(-3.66667,-1.66667,-1.5708)
454.(-3.66667,-1.33333,0)
455.(-3.66667,-1.33333,1.5708)
456.(-3.66667,-1.33333,-1.5708)
457.(-3.66667,-1,0)
458.(-3.66667,-1,1.5708)
459.(-3.66667,-1,-1.5708)
460.(-3.66667,1,0)
461.(-3.66667,1,1.5708)
462.(-3.66667,1,-1.5708)
463.(-3.66667,1.33333,0)
464.(-3.66667,1.33333,1.5708)
465.(-3.66667,1.33333,-1.5708)
466.(-3.66667,1.66667,0)
467.(-3.66667,1.66667,1.5708)
468.(-3.66667,1.66667,-1.5708)
469.(-3.66667,2,0)
470.(-3.66667,2,1.5708)
471.(-3.66667,2,-1.5708)
472.(-3.66667,4,0)
473.(-3.66667,4,1.5708)
474.(-3.66667,4,-1.5708)
475.(-3.33333,-4,0)
476.(-3.33333,-4,1.5708)
477.(-3.33333,-4,-1.5708)
478.(-3.33333,-2,0)
479.(-3.33333,-2,1.5708)
480.(-3.33333,-2,-1.5708)
481.(-3.33333,-1.66667,0)
482.(-3.33333,-1.66667,1.5708)
483.(-3.33333,-1.66667,-1.5708)
484.(-3.33333,-1.33333,0)
485.(-3.33333,-1.33333,1.5708)
486.(-3.33333,-1.33333,-1.5708)
487.(-3.33333,-1,0)
488.(-3.33333,-1,1.5708)
489.(-3.33333,-1,-1.5708)
490.(-3.33333,1,0)
491.(-3.33333,1,1.5708)
492.(-3.33333,1,-1.5708)
493.(-3.33333,1.33333,0)
494.(-3.33333,1.33333,1.5708)
495.(-3.33333,1.33333,-1.5708)
496.(-3.33333,1.66667,0)
497.(-3.33333,1.66667,1.5708)
498.(-3.33333,1.66667,-1.5708)
499.(-3.33333,2,0)
500.(-3.33333,2,1.5708)
501.(-3.33333,2,-1.5708)
502.(-3.33333,4,0)
503.(-3.33333,4,1.5708)
504.(-3.33333,4,-1.5708)
505.(-3,-4,1.5708)
506.(-3,-4,-1.5708)
507.(-3,-2,1.5708)
508.(-3,-2,-1.5708)
509.(-3,-1.66667,0)
510.(-3,-1.66667,1.5708)
511.(-3,-1.66667,-1.5708)
512.(-3,-1.33333,0)
513.(-3,-1.33333,1.5708)
514.(-3,-1.33333,-1.5708)
515.(-3,-1,0)
516.(-3,-1,1.5708)
517.(-3,-1,-1.5708)
518.(-3,1,0)
519.(-3,1,1.5708)
520.(-3,1,-1.5708)
521.(-3,1.33333,0)
522.(-3,1.33333,1.5708)
523.(-3,1.33333,-1.5708)
524.(-3,1.66667,0)
525.(-3,1.66667,1.5708)
526.(-3,1.66667,-1.5708)
527.(-3,2.33333,0)
528.(-3,2.66667,0)
529.(-3,3,0)
530.(-3,3.33333,0)
531.(-3,3.33333,1.5708)
532.(-3,3.33333,-1.5708)
533.(-3,3.66667,0)
534.(-3,3.66667,1.5708)
535.(-3,3.66667,-1.5708)
536.(-3,4,1.5708)
537.(-3,4,-1.5708)
538.(-2.66667,-4,1.5708)
539.(-2.66667,-4,-1.5708)
540.(-2.66667,-2,1.5708)
541.(-2.66667,-2,-1.5708)
542.(-2.66667,2,1.5708)
543.(-2.66667,2,-1.5708)
544.(-2.66667,2.33333,0)
545.(-2.66667,2.33333,1.5708)
546.(-2.66667,2.33333,-1.5708)
547.(-2.66667,2.66667,0)
548.(-2.66667,2.66667,1.5708)
549.(-2.66667,2.66667,-1.5708)
550.(-2.66667,3,0)
551.(-2.66667,3.33333,0)
552.(-2.66667,3.33333,1.5708)
553.(-2.66667,3.33333,-1.5708)
554.(-2.66667,3.66667,0)
555.(-2.66667,3.66667,1.5708)
556.(-2.66667,3.66667,-1.5708)
557.(-2.66667,4,0)
558.(-2.66667,4,1.5708)
559.(-2.66667,4,-1.5708)
560.(-2.33333,-4,1.5708)
561.(-2.33333,-4,-1.5708)
562.(-2.33333,-2,1.5708)
563.(-2.33333,-2,-1.5708)
564.(-2.33333,2,1.5708)
565.(-2.33333,2,-1.5708)
566.(-2.33333,2.33333,0)
567.(-2.33333,2.33333,1.5708)
568.(-2.33333,2.33333,-1.5708)
569.(-2.33333,2.66667,0)
570.(-2.33333,2.66667,1.5708)
571.(-2.33333,2.66667,-1.5708)
572.(-2.33333,3,0)
573.(-2.33333,3.33333,0)
574.(-2.33333,3.33333,1.5708)
575.(-2.33333,3.33333,-1.5708)
576.(-2.33333,3.66667,0)
577.(-2.33333,3.66667,1.5708)
578.(-2.33333,3.66667,-1.5708)
579.(-2.33333,4,0)
580.(-2.33333,4,1.5708)
581.(-2.33333,4,-1.5708)
582.(-2,-4,1.5708)
583.(-2,-4,-1.5708)
584.(-2,-2,1.5708)
585.(-2,-2,-1.5708)
586.(-2,2,1.5708)
587.(-2,2,-1.5708)
588.(-2,2.33333,1.5708)
589.(-2,2.33333,-1.5708)
590.(-2,2.66667,1.5708)
591.(-2,2.66667,-1.5708)
592.(-2,3.33333,0)
593.(-2,3.33333,1.5708)
594.(-2,3.33333,-1.5708)
595.(-2,3.66667,0)
596.(-2,3.66667,1.5708)
597.(-2,3.66667,-1.5708)
598.(-2,4,0)
599.(-2,4,1.5708)
600.(-2,4,-1.5708)
601.(-1.66667,-4,1.5708)
602.(-1.66667,-4,-1.5708)
603.(-1.66667,-2,1.5708)
604.(-1.66667,-2,-1.5708)
605.(-1.66667,2,1.5708)
606.(-1.66667,2,-1.5708)
607.(-1.66667,2.33333,1.5708)
608.(-1.66667,2.33333,-1.5708)
609.(-1.66667,2.66667,1.5708)
610.(-1.66667,2.66667,-1.5708)
611.(-1.66667,3,1.5708)
612.(-1.66667,3,-1.5708)
613.(-1.33333,-4,1.5708)
614.(-1.33333,-4,-1.5708)
615.(-1.33333,-2,1.5708)
616.(-1.33333,-2,-1.5708)
617.(-1.33333,2,1.5708)
618.(-1.33333,2,-1.5708)
619.(-1.33333,2.33333,1.5708)
620.(-1.33333,2.33333,-1.5708)
621.(-1.33333,2.66667,1.5708)
622.(-1.33333,2.66667,-1.5708)
623.(-1.33333,3,1.5708)
624.(-1.33333,3,-1.5708)
625.(-1,-4,1.5708)
626.(-1,-4,-1.5708)
627.(-1,-2,1.5708)
628.(-1,-2,-1.5708)
629.(-1,2,1.5708)
630.(-1,2,-1.5708)
631.(-1,2.33333,1.5708)
632.(-1,2.33333,-1.5708)
633.(-1,2.66667,1.5708)
634.(-1,2.66667,-1.5708)
635.(-1,3,1.5708)
636.(-1,3,-1.5708)
637.(-0.666667,-4,1.5708)
638.(-0.666667,-4,-1.5708)
639.(-0.666667,-2,1.5708)
640.(-0.666667,-2,-1.5708)
641.(-0.666667,2,1.5708)
642.(-0.666667,2,-1.5708)
643.(-0.666667,2.33333,1.5708)
644.(-0.666667,2.33333,-1.5708)
645.(-0.666667,2.66667,1.5708)
646.(-0.666667,2.66667,-1.5708)
647.(-0.666667,3,1.5708)
648.(-0.666667,3,-1.5708)
649.(-0.333333,-4,1.5708)
650.(-0.333333,-4,-1.5708)
651.(-0.333333,-2,1.5708)
652.(-0.333333,-2,-1.5708)
653.(-0.333333,2,1.5708)
654.(-0.333333,2,-1.5708)
655.(-0.333333,2.33333,1.5708)
656.(-0.333333,2.33333,-1.5708)
657.(-0.333333,2.66667,1.5708)
658.(-0.333333,2.66667,-1.5708)
659.(-0.333333,3,1.5708)
660.(-0.333333,3,-1.5708)
661.(0,-4,1.5708)
662.(0,-4,-1.5708)
663.(0,-3.66667,0)
664.(0,-3.66667,1.5708)
665.(0,-3.66667,-1.5708)
666.(0,-3.33333,0)
667.(0,-3.33333,1.5708)
668.(0,-3.33333,-1.5708)
669.(0,-3,0)
670.(0,-2.66667,0)
671.(0,-2.33333,0)
672.(0,-1.66667,0)
673.(0,-1.33333,0)
674.(0,-1,0)
675.(0,-0.666667,0)
676.(0,-0.333333,0)
677.(0,0,0)
678.(0,0.333333,0)
679.(0,0.666667,0)
680.(0,1,0)
681.(0,1.33333,0)
682.(0,1.66667,0)
683.(0,3.33333,0)
684.(0,3.33333,1.5708)
685.(0,3.33333,-1.5708)
686.(0,3.66667,0)
687.(0,3.66667,1.5708)
688.(0,3.66667,-1.5708)
689.(0,4,0)
690.(0,4,1.5708)
691.(0,4,-1.5708)
692.(0.333333,-4,1.5708)
693.(0.333333,-4,-1.5708)
694.(0.333333,-3.66667,0)
695.(0.333333,-3.66667,1.5708)
696.(0.333333,-3.66667,-1.5708)
697.(0.333333,-3.33333,0)
698.(0.333333,-3.33333,1.5708)
699.(0.333333,-3.33333,-1.5708)
700.(0.333333,-3,0)
701.(0.333333,-2.66667,0)
702.(0.333333,-2.33333,0)
703.(0.333333,-1.66667,0)
704.(0.333333,-1.33333,0)
705.(0.333333,-1,0)
706.(0.333333,-0.666667,0)
707.(0.333333,-0.333333,0)
708.(0.333333,0,0)
709.(0.333333,0.333333,0)
710.(0.333333,0.666667,0)
711.(0.333333,1,0)
712.(0.333333,1.33333,0)
713.(0.333333,1.66667,0)
714.(0.333333,2,0)
715.(0.333333,2.33333,0)
716.(0.333333,2.66667,0)
717.(0.333333,3.33333,0)
718.(0.333333,3.33333,1.5708)
719.(0.333333,3.33333,-1.5708)
720.(0.333333,3.66667,0)
721.(0.333333,3.66667,1.5708)
722.(0.333333,3.66667,-1.5708)
723.(0.333333,4,0)
724.(0.333333,4,1.5708)
725.(0.333333,4,-1.5708)
726.(0.666667,-4,1.5708)
727.(0.666667,-4,-1.5708)
728.(0.666667,-3.66667,0)
729.(0.666667,-3.66667,1.5708)
730.(0.666667,-3.66667,-1.5708)
731.(0.666667,-3.33333,0)
732.(0.666667,-3.33333,1.5708)
733.(0.666667,-3.33333,-1.5708)
734.(0.666667,-3,0)
735.(0.666667,-2.66667,0)
736.(0.666667,-2.33333,0)
737.(0.666667,-1.66667,0)
738.(0.666667,-1.33333,0)
739.(0.666667,-1,0)
740.(0.666667,-0.666667,0)
741.(0.666667,-0.333333,0)
742.(0.666667,0,0)
743.(0.666667,0.333333,0)
744.(0.666667,0.666667,0)
745.(0.666667,1,0)
746.(0.666667,1.33333,0)
747.(0.666667,1.66667,0)
748.(0.666667,2,0)
749.(0.666667,2.33333,0)
750.(0.666667,2.66667,0)
751.(0.666667,3.33333,0)
752.(0.666667,3.33333,1.5708)
753.(0.666667,3.33333,-1.5708)
754.(0.666667,3.66667,0)
755.(0.666667,3.66667,1.5708)
756.(0.666667,3.66667,-1.5708)
757.(0.666667,4,0)
758.(0.666667,4,1.5708)
759.(0.666667,4,-1.5708)
760.(1,-4,1.5708)
761.(1,-4,-1.5708)
762.(1,-3.66667,1.5708)
763.(1,-3.66667,-1.5708)
764.(1,-3.33333,1.5708)
765.(1,-3.33333,-1.5708)
766.(1,-1.66667,0)
767.(1,-1.33333,0)
768.(1,-1,0)
769.(1,-0.666667,0)
770.(1,-0.333333,0)
771.(1,0,0)
772.(1,0.333333,0)
773.(1,0.666667,0)
774.(1,1,0)
775.(1,1.33333,0)
776.(1,1.66667,0)
777.(1,2,0)
778.(1,2.33333,0)
779.(1,2.66667,0)
780.(1,3.33333,1.5708)
781.(1,3.33333,-1.5708)
782.(1,3.66667,1.5708)
783.(1,3.66667,-1.5708)
784.(1,4,1.5708)
785.(1,4,-1.5708)
786.(1.33333,-4,1.5708)
787.(1.33333,-4,-1.5708)
788.(1.33333,-3.66667,1.5708)
789.(1.33333,-3.66667,-1.5708)
790.(1.33333,-3.33333,1.5708)
791.(1.33333,-3.33333,-1.5708)
792.(1.33333,-2.66667,1.5708)
793.(1.33333,-2.66667,-1.5708)
794.(1.33333,-2.33333,1.5708)
795.(1.33333,-2.33333,-1.5708)
796.(1.33333,-2,1.5708)
797.(1.33333,-2,-1.5708)
798.(1.33333,3,1.5708)
799.(1.33333,3,-1.5708)
800.(1.33333,3.33333,1.5708)
801.(1.33333,3.33333,-1.5708)
802.(1.33333,3.66667,1.5708)
803.(1.33333,3.66667,-1.5708)
804.(1.33333,4,1.5708)
805.(1.33333,4,-1.5708)
806.(1.66667,-4,1.5708)
807.(1.66667,-4,-1.5708)
808.(1.66667,-3.66667,1.5708)
809.(1.66667,-3.66667,-1.5708)
810.(1.66667,-3.33333,1.5708)
811.(1.66667,-3.33333,-1.5708)
812.(1.66667,-2.66667,1.5708)
813.(1.66667,-2.66667,-1.5708)
814.(1.66667,-2.33333,1.5708)
815.(1.66667,-2.33333,-1.5708)
816.(1.66667,-2,1.5708)
817.(1.66667,-2,-1.5708)
818.(1.66667,3,1.5708)
819.(1.66667,3,-1.5708)
820.(1.66667,3.33333,1.5708)
821.(1.66667,3.33333,-1.5708)
822.(1.66667,3.66667,1.5708)
823.(1.66667,3.66667,-1.5708)
824.(1.66667,4,1.5708)
825.(1.66667,4,-1.5708)
826.(2,-4,1.5708)
827.(2,-4,-1.5708)
828.(2,-3.66667,1.5708)
829.(2,-3.66667,-1.5708)
830.(2,-3.33333,1.5708)
831.(2,-3.33333,-1.5708)
832.(2,-2.66667,1.5708)
833.(2,-2.66667,-1.5708)
834.(2,-2.33333,1.5708)
835.(2,-2.33333,-1.5708)
836.(2,-2,1.5708)
837.(2,-2,-1.5708)
838.(2,3,1.5708)
839.(2,3,-1.5708)
840.(2,3.33333,1.5708)
841.(2,3.33333,-1.5708)
842.(2,3.66667,1.5708)
843.(2,3.66667,-1.5708)
844.(2,4,1.5708)
845.(2,4,-1.5708)
846.(2.33333,-4,1.5708)
847.(2.33333,-4,-1.5708)
848.(2.33333,-3.66667,1.5708)
849.(2.33333,-3.66667,-1.5708)
850.(2.33333,-3.33333,1.5708)
851.(2.33333,-3.33333,-1.5708)
852.(2.33333,-2.66667,1.5708)
853.(2.33333,-2.66667,-1.5708)
854.(2.33333,-2.33333,1.5708)
855.(2.33333,-2.33333,-1.5708)
856.(2.33333,-2,1.5708)
857.(2.33333,-2,-1.5708)
858.(2.33333,3,1.5708)
859.(2.33333,3,-1.5708)
860.(2.33333,3.33333,1.5708)
861.(2.33333,3.33333,-1.5708)
862.(2.33333,3.66667,1.5708)
863.(2.33333,3.66667,-1.5708)
864.(2.33333,4,1.5708)
865.(2.33333,4,-1.5708)
866.(2.66667,-4,1.5708)
867.(2.66667,-4,-1.5708)
868.(2.66667,-3.66667,1.5708)
869.(2.66667,-3.66667,-1.5708)
870.(2.66667,-3.33333,1.5708)
871.(2.66667,-3.33333,-1.5708)
872.(2.66667,-2.66667,1.5708)
873.(2.66667,-2.66667,-1.5708)
874.(2.66667,-2.33333,1.5708)
875.(2.66667,-2.33333,-1.5708)
876.(2.66667,-2,1.5708)
877.(2.66667,-2,-1.5708)
878.(2.66667,3,1.5708)
879.(2.66667,3,-1.5708)
880.(2.66667,3.33333,1.5708)
881.(2.66667,3.33333,-1.5708)
882.(2.66667,3.66667,1.5708)
883.(2.66667,3.66667,-1.5708)
884.(2.66667,4,1.5708)
885.(2.66667,4,-1.5708)
886.(3,-4,1.5708)
887.(3,-4,-1.5708)
888.(3,-3.66667,1.5708)
889.(3,-3.66667,-1.5708)
890.(3,-3.33333,1.5708)
891.(3,-3.33333,-1.5708)
892.(3,-2.66667,1.5708)
893.(3,-2.66667,-1.5708)
894.(3,-2.33333,1.5708)
895.(3,-2.33333,-1.5708)
896.(3,-2,1.5708)
897.(3,-2,-1.5708)
898.(3,3,1.5708)
899.(3,3,-1.5708)
900.(3,3.33333,1.5708)
901.(3,3.33333,-1.5708)
902.(3,3.66667,1.5708)
903.(3,3.66667,-1.5708)
904.(3,4,1.5708)
905.(3,4,-1.5708)
906.(3.33333,-4,0)
907.(3.33333,-4,1.5708)
908.(3.33333,-4,-1.5708)
909.(3.33333,-3.66667,0)
910.(3.33333,-3.66667,1.5708)
911.(3.33333,-3.66667,-1.5708)
912.(3.33333,-3.33333,0)
913.(3.33333,-3.33333,1.5708)
914.(3.33333,-3.33333,-1.5708)
915.(3.33333,-3,0)
916.(3.33333,-2.66667,0)
917.(3.33333,-2.66667,1.5708)
918.(3.33333,-2.66667,-1.5708)
919.(3.33333,-2.33333,0)
920.(3.33333,-2.33333,1.5708)
921.(3.33333,-2.33333,-1.5708)
922.(3.33333,-2,0)
923.(3.33333,-2,1.5708)
924.(3.33333,-2,-1.5708)
925.(3.33333,3,0)
926.(3.33333,3,1.5708)
927.(3.33333,3,-1.5708)
928.(3.33333,3.33333,0)
929.(3.33333,3.33333,1.5708)
930.(3.33333,3.33333,-1.5708)
931.(3.33333,3.66667,0)
932.(3.33333,3.66667,1.5708)
933.(3.33333,3.66667,-1.5708)
934.(3.33333,4,0)
935.(3.33333,4,1.5708)
936.(3.33333,4,-1.5708)
937.(3.66667,-4,0)
938.(3.66667,-4,1.5708)
939.(3.66667,-4,-1.5708)
940.(3.66667,-3.66667,0)
941.(3.66667,-3.66667,1.5708)
942.(3.66667,-3.66667,-1.5708)
943.(3.66667,-3.33333,0)
944.(3.66667,-3.33333,1.5708)
945.(3.66667,-3.33333,-1.5708)
946.(3.66667,-3,0)
947.(3.66667,-2.66667,0)
948.(3.66667,-2.66667,1.5708)
949.(3.66667,-2.66667,-1.5708)
950.(3.66667,-2.33333,0)
951.(3.66667,-2.33333,1.5708)
952.(3.66667,-2.33333,-1.5708)
953.(3.66667,-2,0)
954.(3.66667,-2,1.5708)
955.(3.66667,-2,-1.5708)
956.(3.66667,3,0)
957.(3.66667,3,1.5708)
958.(3.66667,3,-1.5708)
959.(3.66667,3.33333,0)
960.(3.66667,3.33333,1.5708)
961.(3.66667,3.33333,-1.5708)
962.(3.66667,3.66667,0)
963.(3.66667,3.66667,1.5708)
964.(3.66667,3.66667,-1.5708)
965.(3.66667,4,0)
966.(3.66667,4,1.5708)
967.(3.66667,4,-1.5708)
968.(4,-4,0)
969.(4,-4,1.5708)
970.(4,-4,-1.5708)
971.(4,-3.66667,0)
972.(4,-3.66667,1.5708)
973.(4,-3.66667,-1.5708)
974.(4,-3.33333,0)
975.(4,-3.33333,1.5708)
976.(4,-3.33333,-1.5708)
977.(4,-3,0)
978.(4,-2.66667,0)
979.(4,-2.66667,1.5708)
980.(4,-2.66667,-1.5708)
981.(4,-2.33333,0)
982.(4,-2.33333,1.5708)
983.(4,-2.33333,-1.5708)
984.(4,-2,0)
985.(4,-2,1.5708)
986.(4,-2,-1.5708)
987.(4,2,0)
988.(4,2,1.5708)
989.(4,2,-1.5708)
990.(4,2.33333,0)
991.(4,2.33333,1.5708)
992.(4,2.33333,-1.5708)
993.(4,2.66667,0)
994.(4,2.66667,1.5708)
995.(4,2.66667,-1.5708)
996.(4,3,0)
997.(4,3.33333,0)
998.(4,3.33333,1.5708)
999.(4,3.33333,-1.5708)
1000.(4,3.66667,0)
1001.(4,3.66667,1.5708)
1002.(4,3.66667,-1.5708)
1003.(4,4,0)
1004.(4,4,1.5708)
1005.(4,4,-1.5708)
1006.(-3.66667,-1.66667,2.3562)
1007.(-3.66667,-1.66667,-0.7854)
1008.(-3.66667,-1.66667,-2.3562)
1009.(-3.66667,-1.66667,0.7854)
1010.(-3.66667,-1.33333,2.3562)
1011.(-3.66667,-1.33333,-0.7854)
1012.(-3.66667,-1.33333,-2.3562)
1013.(-3.66667,-1.33333,0.7854)
1014.(-3.66667,1.33333,2.3562)
1015.(-3.66667,1.33333,-0.7854)
1016.(-3.66667,1.33333,-2.3562)
1017.(-3.66667,1.33333,0.7854)
1018.(-3.66667,1.66667,2.3562)
1019.(-3.66667,1.66667,-0.7854)
1020.(-3.66667,1.66667,-2.3562)
1021.(-3.66667,1.66667,0.7854)
1022.(-3.33333,-1.66667,2.3562)
1023.(-3.33333,-1.66667,-0.7854)
1024.(-3.33333,-1.66667,-2.3562)
1025.(-3.33333,-1.66667,0.7854)
1026.(-3.33333,-1.33333,2.3562)
1027.(-3.33333,-1.33333,-0.7854)
1028.(-3.33333,-1.33333,-2.3562)
1029.(-3.33333,-1.33333,0.7854)
1030.(-3.33333,1.33333,2.3562)
1031.(-3.33333,1.33333,-0.7854)
1032.(-3.33333,1.33333,-2.3562)
1033.(-3.33333,1.33333,0.7854)
1034.(-3.33333,1.66667,2.3562)
1035.(-3.33333,1.66667,-0.7854)
1036.(-3.33333,1.66667,-2.3562)
1037.(-3.33333,1.66667,0.7854)
1038.(-3.33333,2,-2.3562)
1039.(-3.33333,2,0.7854)
1040.(-3.33333,2.33333,-2.3562)
1041.(-3.33333,2.33333,0.7854)
1042.(-3.33333,2.66667,-2.3562)
1043.(-3.33333,2.66667,0.7854)
1044.(-3.33333,3.33333,2.3562)
1045.(-3.33333,3.33333,-0.7854)
1046.(-3.33333,3.66667,2.3562)
1047.(-3.33333,3.66667,-0.7854)
