(repeat-grasp-0-0 o0 row0)
(repeat-place-0-1 o0 dummy_goal_o0 row0)
(repeat-next-ball-0-2 o0 o1 row0)
(repeat-grasp-0-3 o1 row0)
(repeat-place-0-1 o1 dummy_goal_o1 row0)
(repeat-next-ball-0-2 o1 o2 row0)
(repeat-grasp-0-3 o2 row0)
(repeat-place-0-1 o2 dummy_goal_o2 row0)
(repeat-next-ball-0-2 o2 bmax row0)
(repeat-end-main-5-0 row0)
