\relax 
\providecommand\hyper@newdestlabel[2]{}
\providecommand\HyperFirstAtBeginDocument{\AtBeginDocument}
\HyperFirstAtBeginDocument{\ifx\hyper@anchor\@undefined
\global\let\oldcontentsline\contentsline
\gdef\contentsline#1#2#3#4{\oldcontentsline{#1}{#2}{#3}}
\global\let\oldnewlabel\newlabel
\gdef\newlabel#1#2{\newlabelxx{#1}#2}
\gdef\newlabelxx#1#2#3#4#5#6{\oldnewlabel{#1}{{#2}{#3}}}
\AtEndDocument{\ifx\hyper@anchor\@undefined
\let\contentsline\oldcontentsline
\let\newlabel\oldnewlabel
\fi}
\fi}
\global\let\hyper@last\relax 
\gdef\HyperFirstAtBeginDocument#1{#1}
\providecommand\HyField@AuxAddToFields[1]{}
\providecommand\HyField@AuxAddToCoFields[2]{}
\bibstyle{ecai}
\citation{cambon2004asymov}
\citation{wolfe2010combined}
\citation{lagriffoul2012constraint}
\citation{lozano2014constraint}
\citation{garrett2014ffrob}
\citation{Fikes72}
\citation{Geffner:FSM:AAAI10}
\citation{Infantes:FSC:ECAI2010}
\citation{Zilberstein:Gplanning:icaps11}
\citation{Giacomo:FSM:ICAPS13}
\citation{Erol96}
\citation{baier:procedural}
\citation{Jimenez15}
\citation{segovia16a}
\citation{Jimenez15}
\citation{ferrerplanning}
\@writefile{toc}{\contentsline {section}{\numberline {1}Introduction}{1}{section.1}}
\@writefile{lof}{\contentsline {figure}{\numberline {1}{\ignorespaces Gripper must grasp green object.\relax }}{1}{figure.caption.1}}
\providecommand*\caption@xref[2]{\@setref\relax\@undefined{#1}}
\newlabel{fig:init}{{1}{1}{Gripper must grasp green object.\relax }{figure.caption.1}{}}
\@writefile{lof}{\contentsline {figure}{\numberline {2}{\ignorespaces Generalized plan in the form of a {\it  planning program} for 2 balls in 2 bins.\relax }}{1}{figure.caption.2}}
\newlabel{fig:program1}{{2}{1}{Generalized plan in the form of a {\it planning program} for 2 balls in 2 bins.\relax }{figure.caption.2}{}}
\citation{Fikes72}
\citation{lavalle:motion-planning}
\@writefile{lof}{\contentsline {figure}{\numberline {3}{\ignorespaces Example 2 balls in 2 bins tasks in a $5\times 5$ grid.\relax }}{2}{figure.caption.3}}
\newlabel{fig:2b2b}{{3}{2}{Example 2 balls in 2 bins tasks in a $5\times 5$ grid.\relax }{figure.caption.3}{}}
\@writefile{toc}{\contentsline {section}{\numberline {2}Background}{2}{section.2}}
\@writefile{toc}{\contentsline {subsection}{\numberline {2.1}Classical Planning with Conditional Effects}{2}{subsection.2.1}}
\@writefile{toc}{\contentsline {subsection}{\numberline {2.2}Motion Planning}{2}{subsection.2.2}}
\citation{Giacomo:GPlanning:IJCAI11}
\citation{segovia16a}
\citation{segovia16a}
\citation{bonet:icaps09}
\citation{Giacomo:GPlanning:IJCAI11}
\citation{segovia16a}
\citation{segovia16a}
\@writefile{toc}{\contentsline {subsection}{\numberline {2.3}Generalized Planning}{3}{subsection.2.3}}
\@writefile{toc}{\contentsline {subsection}{\numberline {2.4}Planning Programs}{3}{subsection.2.4}}
\@writefile{toc}{\contentsline {subsection}{\numberline {2.5}Computing Planning Programs with Classical Planning}{3}{subsection.2.5}}
\@writefile{toc}{\contentsline {section}{\numberline {3}Modeling Task and Motion Planning}{3}{section.3}}
\@writefile{lof}{\contentsline {figure}{\numberline {5}{\ignorespaces \relax \fontsize  {9}{9.9}\selectfont  \abovedisplayskip 7.7\p@ plus2.7\p@ minus3.6\p@ \abovedisplayshortskip \z@ plus1.8\p@ \belowdisplayshortskip 3.6\p@ plus1.8\p@ minus1.8\p@ \def \leftmargin \leftmargini \topsep 2.7\p@ plus\p@ minus\p@ \parsep 1.8\p@ plus\p@ minus\p@ \itemsep \parsep {\leftmargin \leftmargini \topsep 3.6\p@ plus1.8\p@ minus1.8\p@ \parsep 1.8\p@ plus\p@ minus\p@ \itemsep \parsep }\belowdisplayskip \abovedisplayskip Model in STRIPS. Our encoding ground arguments.\relax }}{4}{figure.caption.5}}
\newlabel{fig:modeling}{{5}{4}{\small Model in STRIPS. Our encoding ground arguments.\relax }{figure.caption.5}{}}
\@writefile{toc}{\contentsline {section}{\numberline {4}Generalized Planning for CTMP}{4}{section.4}}
\citation{Jimenez15}
\citation{segovia16a}
\@writefile{lof}{\contentsline {figure}{\numberline {4}{\ignorespaces Initial and target states for \textit  {MOVING-GEOM-OBSTACLE} instance in which robot has to reach a target configuration, and objects need to be grasped and moved out of the way.\relax }}{5}{figure.caption.4}}
\newlabel{fig:images}{{4}{5}{Initial and target states for \textit {MOVING-GEOM-OBSTACLE} instance in which robot has to reach a target configuration, and objects need to be grasped and moved out of the way.\relax }{figure.caption.4}{}}
\@writefile{toc}{\contentsline {subsection}{\numberline {4.1}Generalized Planning as Domain Control Knowledge}{5}{subsection.4.1}}
\@writefile{toc}{\contentsline {subsubsection}{\numberline {4.1.1}Translating DCK into Tasks}{5}{subsubsection.4.1.1}}
\@writefile{toc}{\contentsline {subsection}{\numberline {4.2}Serialized CTMP}{6}{subsection.4.2}}
\@writefile{toc}{\contentsline {section}{\numberline {5}Experimental Results}{6}{section.5}}
\newlabel{res_data}{{\caption@xref {res_data}{ on input line 383}}{6}{Experimental Results}{table.caption.6}{}}
\@writefile{lot}{\contentsline {table}{\numberline {1}{\ignorespaces Data of the 22 considered instances. The first column corresponds to the problem type: MOVING-GEOM-OBSTACLES(MGO), CLUTTERED(CL) and TYDING-UP(TU), with the resolution parameter $r$ and the number of objects. The next columns show the number of valid configurations, the robot-object $O(R-O)$ and object-object $O(O-O)$ computed overlaps, the total number of grounded actions and the number of fluents. \relax }}{6}{table.caption.6}}
\citation{nebel2013much}
\citation{garrett2014ffrob}
\newlabel{my-label}{{\caption@xref {my-label}{ on input line 391}}{7}{Experimental Results}{table.caption.7}{}}
\@writefile{lot}{\contentsline {table}{\numberline {2}{\ignorespaces Performance of STRIPS planner on the 22 instances from Table 1. The STRIPS planner is FD. We show results with both: Without using Generalized Planning and solving the whole problem at once, and with Generalized planning. For each instance, the columns show the plan length, the number of expanded nodes and the runtime in seconds for non GP approach, and the total plan length, the total runtime in seconds and the number of planner calls for GP approach. Simulations of the execution of the computed plans can be visualized at \url  {https://www.dropbox.com/sh/x7zbl7oqr552knq/AABbf638A46eI9lrWzjdUjFna?dl=0}\relax }}{7}{table.caption.7}}
\newlabel{res:results}{{2}{7}{Performance of STRIPS planner on the 22 instances from Table 1. The STRIPS planner is FD. We show results with both: Without using Generalized Planning and solving the whole problem at once, and with Generalized planning. For each instance, the columns show the plan length, the number of expanded nodes and the runtime in seconds for non GP approach, and the total plan length, the total runtime in seconds and the number of planner calls for GP approach. Simulations of the execution of the computed plans can be visualized at \url {https://www.dropbox.com/sh/x7zbl7oqr552knq/AABbf638A46eI9lrWzjdUjFna?dl=0}\relax }{table.caption.7}{}}
\@writefile{toc}{\contentsline {subsection}{\numberline {5.1}General High-level Controllers}{7}{subsection.5.1}}
\@writefile{toc}{\contentsline {subsection}{\numberline {5.2}Validations and Use of Plans}{7}{subsection.5.2}}
\citation{srivastava:2014}
\citation{kaelbling2011hierarchical}
\citation{wolfe2010combined}
\citation{cambon2004asymov}
\citation{gravot2005asymov}
\citation{lagriffoul2012constraint}
\citation{baier:Procedures2PDDL:ICAPS2007}
\citation{baier:Procedures2PDDL:KR08}
\citation{Jimenez15}
\citation{Geffner:FSM:AAAI10}
\citation{palacios-conformant-JAIR09}
\@writefile{lof}{\contentsline {figure}{\numberline {6}{\ignorespaces Flow diagrams of a planning program obtained for Cluttered domain (main and 2 procedures)\relax }}{8}{figure.caption.8}}
\newlabel{fig:controllers}{{6}{8}{Flow diagrams of a planning program obtained for Cluttered domain (main and 2 procedures)\relax }{figure.caption.8}{}}
\@writefile{lot}{\contentsline {table}{\numberline {3}{\ignorespaces Generalized planning data form all domains.\relax }}{8}{table.caption.9}}
\newlabel{my-label}{{3}{8}{Generalized planning data form all domains.\relax }{table.caption.9}{}}
\@writefile{toc}{\contentsline {section}{\numberline {6}Related Work}{8}{section.6}}
\@writefile{toc}{\contentsline {section}{\numberline {7}Conclusions}{8}{section.7}}
\citation{segovia16IJCAI}
\citation{geffner:fstrips}
\citation{Guillem-fstrips-ICAPS15}
\bibdata{ecai}
\bibcite{baier:procedural}{1}
\bibcite{baier:Procedures2PDDL:ICAPS2007}{2}
\bibcite{bonet:icaps09}{3}
\bibcite{Geffner:FSM:AAAI10}{4}
\bibcite{cambon2004asymov}{5}
\bibcite{Erol96}{6}
\bibcite{ferrerplanning}{7}
\bibcite{Fikes72}{8}
\bibcite{Guillem-fstrips-ICAPS15}{9}
\bibcite{baier:Procedures2PDDL:KR08}{10}
\bibcite{garrett2014ffrob}{11}
\bibcite{geffner:fstrips}{12}
\bibcite{gravot2005asymov}{13}
\bibcite{Giacomo:GPlanning:IJCAI11}{14}
\bibcite{Giacomo:FSM:ICAPS13}{15}
\bibcite{Jimenez15}{16}
\bibcite{kaelbling2011hierarchical}{17}
\bibcite{lagriffoul2012constraint}{18}
\bibcite{lavalle:motion-planning}{19}
\bibcite{lozano2014constraint}{20}
\bibcite{nebel2013much}{21}
\bibcite{palacios-conformant-JAIR09}{22}
\bibcite{Infantes:FSC:ECAI2010}{23}
\bibcite{segovia16a}{24}
\bibcite{srivastava:2014}{25}
\bibcite{Zilberstein:Gplanning:icaps11}{26}
\bibcite{wolfe2010combined}{27}
