\BOOKMARK [1][-]{section.1}{Introduction}{}% 1
\BOOKMARK [1][-]{section.2}{Background}{}% 2
\BOOKMARK [2][-]{subsection.2.1}{Classical Planning with Conditional Effects}{section.2}% 3
\BOOKMARK [2][-]{subsection.2.2}{Motion Planning}{section.2}% 4
\BOOKMARK [2][-]{subsection.2.3}{Generalized Planning}{section.2}% 5
\BOOKMARK [2][-]{subsection.2.4}{Planning Programs}{section.2}% 6
\BOOKMARK [2][-]{subsection.2.5}{Computing Planning Programs with Classical Planning}{section.2}% 7
\BOOKMARK [1][-]{section.3}{Modeling Task and Motion Planning}{}% 8
\BOOKMARK [1][-]{section.4}{Generalized Planning for CTMP}{}% 9
\BOOKMARK [2][-]{subsection.4.1}{Generalized Planning as Domain Control Knowledge}{section.4}% 10
\BOOKMARK [3][-]{subsubsection.4.1.1}{Translating DCK into Tasks}{subsection.4.1}% 11
\BOOKMARK [2][-]{subsection.4.2}{Serialized CTMP}{section.4}% 12
\BOOKMARK [1][-]{section.5}{Experimental Results}{}% 13
\BOOKMARK [2][-]{subsection.5.1}{General High-level Controllers}{section.5}% 14
\BOOKMARK [2][-]{subsection.5.2}{Validations and Use of Plans}{section.5}% 15
\BOOKMARK [1][-]{section.6}{Related Work}{}% 16
\BOOKMARK [1][-]{section.7}{Conclusions}{}% 17
