(to-c44-c46-E-o3-c25-c28)
(to-c46-c48-E-o3-c28-c31)
(to-c48-c92-SW-o3-c31-c77)
(to-c92-c94-E-o3-c77-c80)
(to-c94-c140-S-o3-c80-c126)
(to-c140-c196-SE-o3-c126-c177)
(ro-c196-c661-CW-o3-c177-c43)
(p-o3)
(tr-c661-SE-c727)
(rr-c727-CW-c261)
(tr-c261-SW-c321)
(tr-c321-SW-c381)
(rr-c381-CW-c861)
(rr-c861-CW-c383)
(tr-c383-W-c380)
(tr-c380-W-c377)
(rr-c377-CCW-c857)
(rr-c857-CCW-c375)
(g-c375-o3-c43)
(ro-c375-c857-CW-o3-c43-c195)
(to-c857-c859-E-o3-c195-c198)
(to-c859-c861-E-o3-c198-c201)
(p-o3)
(rr-c861-CW-c383)
(tr-c383-E-c386)
(g-c386-o0-c402)
(to-c386-c389-E-o0-c402-c405)
(to-c389-c392-E-o0-c405-c406)
(to-c392-c395-E-o0-c406-c407)
(p-o0)
(tr-c395-W-c392)
(tr-c392-W-c389)
(tr-c389-W-c386)
(tr-c386-W-c383)
(dummy-goal-o0-action-6)
(rr-c383-CCW-c861)
(g-c861-o3-c201)
(ro-c861-c383-CW-o3-c201-c399)
(to-c383-c386-E-o3-c399-c402)
(dummy-goal-o3-action-3)
; cost = 40 (unit cost)
