(tr-c176-S-c185)
(tr-c185-S-c194)
(rr-c194-CCW-c364)
(rr-c364-CCW-c192)
(tr-c192-SW-c200)
(tr-c200-W-c199)
(tr-c199-NW-c189)
(g-c189-o6-c129)
(to-c189-c198-S-o6-c129-c144)
(p-o6)
(tr-c198-SE-c208)
(tr-c208-NE-c200)
(tr-c200-NE-c192)
(tr-c192-SE-c204)
(tr-c204-E-c205)
(tr-c205-NE-c197)
(g-c197-o7-c141)
(to-c197-c206-S-o7-c141-c152)
(to-c206-c215-S-o7-c152-c161)
(to-c215-c224-S-o7-c161-c170)
(to-c224-c223-W-o7-c170-c169)
(to-c223-c222-W-o7-c169-c168)
(to-c222-c219-W-o7-c168-c165)
(ro-c219-c378-CCW-o7-c165-c189)
(to-c378-c374-N-o7-c189-c180)
(ro-c374-c210-CW-o7-c180-c165)
(ro-c210-c372-CW-o7-c165-c188)
(p-o7)
(tr-c372-N-c368)
(rr-c368-CCW-c201)
(tr-c201-W-c200)
(tr-c200-W-c199)
(tr-c199-W-c198)
(g-c198-o6-c144)
(to-c198-c207-S-o6-c144-c153)
(to-c207-c216-S-o6-c153-c162)
(to-c216-c208-NE-o6-c162-c163)
(to-c208-c218-SE-o6-c163-c164)
(to-c218-c210-NE-o6-c164-c165)
(ro-c210-c374-CCW-o6-c165-c180)
(p-o6)
(rr-c374-CW-c210)
(rr-c210-CW-c372)
(g-c372-o7-c188)
(ro-c372-c210-CCW-o7-c188-c165)
(p-o7)
(rr-c210-CCW-c374)
(g-c374-o6-c180)
(to-c374-c378-S-o6-c180-c189)
(p-o6)
(rr-c378-CW-c219)
(g-c219-o7-c165)
(ro-c219-c376-CW-o7-c165-c197)
(to-c376-c372-N-o7-c197-c188)
(to-c372-c368-N-o7-c188-c179)
(p-o7)
(tr-c368-N-c364)
(rr-c364-CCW-c192)
(g-c192-o5-c132)
(ro-c192-c366-CCW-o5-c132-c162)
(to-c366-c362-N-o5-c162-c153)
(to-c362-c354-N-o5-c153-c144)
(to-c354-c346-N-o5-c144-c129)
(p-o5)
(rr-c346-CW-c165)
(g-c165-o1-c87)
(ro-c165-c344-CW-o1-c87-c141)
(p-o1)
(tr-c344-N-c336)
(tr-c336-N-c326)
(dummy-action-326)
; cost = 71 (unit cost)
