(to-c22-c45-S-o0-c172-c4)
(to-c45-c46-E-o0-c4-c182)
(to-c46-c49-E-o0-c182-c7)
(to-c49-c52-E-o0-c7-c10)
(to-c52-c55-E-o0-c10-c13)
(to-c55-c58-E-o0-c13-c183)
(ro-c58-c145-CW-o0-c183-c38)
(to-c145-c149-E-o0-c38-c41)
(dummy-goal-o0-action-2)
; cost = 9 (unit cost)
