(p-o2 )
(tr-c80-n-c60 )
(g-c60-o0-c64 )
(to-c60-c63-e-o0-c64-c67 )
(p-o0 )
(rr-c63-cw-c150 )
(g-c150-o2-c203 )
(to-c150-c122-n-o2-c203-c64 )
(dummy-goal-o0-action-6 )
(dummy-goal-o2-action-3 )
; cost = 10 (unit cost)
