INS-XDEC-0-0 
JMP-0-1-0 COND-XPOS-0-1 V0 
JMP-0-2-4 COND-XPOS-0-2 V1 
INS-XINC-0-3 
JMP-0-4-3 COND-EQUALX-XGOAL-0-4 
INS-END-0-5 

INS-YDEC-1-0 
JMP-1-1-0 COND-YPOS-1-1 V0 
JMP-1-2-4 COND-YPOS-1-2 V1 
INS-YINC-1-3 
JMP-1-4-3 COND-EQUALY-YGOAL-1-4 
INS-END-1-5 

CALL-0-2-0 
CALL-1-2-1
INS-END-2-2
