INS-ITERINC-0-0 
JMP-0-1-3 COND-LESSTHAN-ASSIGNMENT-MARK-0-1 
INS-MARK-ITERATOR-VALUE-0-2 
JMP-0-3-0 COND-EQUAL-ITERATOR-MAX-0-3 
INS-END-0-4 

CALL-0-1-0 
INS-SWAP-1-1 
INS-OUTERITERINC-1-2 
JMP-1-3-0 COND-EQUAL-ITERATOR-MAX-1-3 
INS-END-1-4 
